{
  "$schema": "https://ui.shadcn.com/schema.json",
  "style": "new-york",
  "rsc": false,
  "tsx": true,
  "tailwind": {
    "config": "tailwind.config.js",
    "css": "styles/global.css",
    "baseColor": "gray",
    "cssVariables": true,
    "prefix": ""
  },
  "aliases": {
    "components": "@components",
    "utils": "@lib/utils"
  }
}